<svg xmlns="http://www.w3.org/2000/svg" width="530.143" height="506.923" viewBox="0 0 530.143 506.923">
  <g id="purple-icon" transform="matrix(-0.5, -0.866, 0.866, -0.5, 180.714, 528.489)" opacity="0.09">
    <circle id="Ellipse_4" data-name="Ellipse 4" cx="23.364" cy="23.364" r="23.364" transform="translate(299.125 14.511)" fill="#5e2568"/>
    <path id="Path_20" data-name="Path 20" d="M11.894,38.733A34.517,34.517,0,0,0,0,45.407a34.588,34.588,0,0,0,9.379-36A34.6,34.6,0,0,0,4.651,0,112.619,112.619,0,0,1,46.1,46.3,34.589,34.589,0,0,0,11.894,38.733Z" transform="translate(345.851 17.62)" fill="#5e2568"/>
    <path id="Path_21" data-name="Path 21" d="M0,8.147A34.442,34.442,0,0,0,14.329,6.673,34.5,34.5,0,0,0,26.222,0,34.673,34.673,0,0,0,15.184,24.841,49.34,49.34,0,0,0,0,8.147Z" transform="translate(318.64 63.957)" fill="#5e2568"/>
    <path id="Path_22" data-name="Path 22" d="M56.3,217.083a34.423,34.423,0,0,0-15.187,3.545,48.835,48.835,0,0,0,8-26.825A49.114,49.114,0,0,0,0,144.689V64.2A49.113,49.113,0,0,0,49.114,15.084c0-1.307-.1-2.59-.2-3.871A34.613,34.613,0,0,0,88.2,24.7,34.558,34.558,0,0,0,111.123,0a113.026,113.026,0,0,1,1.039,15.084A111.968,111.968,0,0,1,67.77,104.443,111.967,111.967,0,0,1,112.162,193.8a111.65,111.65,0,0,1-22.643,67.567A34.563,34.563,0,0,0,56.3,217.083Z" transform="translate(290.88 97.522)" fill="#5e2568"/>
    <circle id="Ellipse_5" data-name="Ellipse 5" cx="23.364" cy="23.364" r="23.364" transform="translate(351.529 60.692) rotate(13.283)" fill="#5e2568"/>
    <g id="Group_26" data-name="Group 26" transform="translate(0 0)">
      <path id="Path_23" data-name="Path 23" d="M23.792,0A34.68,34.68,0,0,0,22.7,8.487,34.737,34.737,0,0,0,57.441,43.224,34.54,34.54,0,0,0,73.018,39.5a49.017,49.017,0,0,0,39.143,78.607v7.51A134.74,134.74,0,0,0,37.818,152.98,112.066,112.066,0,0,1,23.792,0Z" transform="translate(0 43.133)" fill="#5e2568"/>
      <path id="Path_24" data-name="Path 24" d="M59.813,63.08a48.771,48.771,0,0,0-25.426,7.158A34.536,34.536,0,0,0,39.829,51.62,34.736,34.736,0,0,0,5.092,16.884,34.83,34.83,0,0,0,0,17.3a112.138,112.138,0,0,1,171.974,94.864c0,.148-.011.294-.011.444h-63.09c0-.15.022-.294.022-.444A49.082,49.082,0,0,0,59.813,63.08Z" transform="translate(52.349 0)" fill="#5e2568"/>
    </g>
    <circle id="Ellipse_6" data-name="Ellipse 6" cx="23.364" cy="23.364" r="23.364" transform="translate(329.59 321.328) rotate(13.282)" fill="#5e2568"/>
    <ellipse id="Ellipse_7" data-name="Ellipse 7" cx="23.364" cy="23.364" rx="23.364" ry="23.364" transform="translate(57.441 18.579) rotate(45)" fill="#5e2568"/>
    <path id="Path_25" data-name="Path 25" d="M44.106,22.5A111.56,111.56,0,0,1,111.454,0c.238,0,.47.018.707.019v62.5a49.114,49.114,0,1,0,49.114,49.114h80.491a49.039,49.039,0,0,0,74.766,41.823A34.533,34.533,0,0,0,355.9,202.99,112.094,112.094,0,0,1,201.521,179.4,112.148,112.148,0,1,1,44.106,22.5Z" transform="translate(0 179.696)" fill="#5e2568"/>
    <path id="Path_26" data-name="Path 26" d="M0,44.326l.054.067A112.087,112.087,0,0,1,115.517,3.087a34.559,34.559,0,0,0-16.65,60.891A49.057,49.057,0,0,0,40.3,112.162H0Z" transform="translate(201.467 0.444)" fill="#5e2568"/>
  </g>
</svg>
