<svg xmlns="http://www.w3.org/2000/svg" width="616.779" height="589.765" viewBox="0 0 616.779 589.765">
  <g id="mushba-said-bg" transform="matrix(-0.5, -0.866, 0.866, -0.5, 210.246, 614.856)" opacity="0.25">
    <circle id="Ellipse_4" data-name="Ellipse 4" cx="27.182" cy="27.182" r="27.182" transform="translate(348.008 16.883)" fill="#d5c195"/>
    <path id="Path_20" data-name="Path 20" d="M13.838,45.063A40.158,40.158,0,0,0,0,52.828a40.241,40.241,0,0,0,10.912-41.88A40.25,40.25,0,0,0,5.411,0,131.023,131.023,0,0,1,53.629,53.861,40.242,40.242,0,0,0,13.838,45.063Z" transform="translate(402.371 20.5)" fill="#d5c195"/>
    <path id="Path_21" data-name="Path 21" d="M0,9.478A40.07,40.07,0,0,0,16.67,7.764,40.14,40.14,0,0,0,30.507,0,40.339,40.339,0,0,0,17.666,28.9,57.4,57.4,0,0,0,0,9.478Z" transform="translate(370.712 74.409)" fill="#d5c195"/>
    <path id="Path_22" data-name="Path 22" d="M65.5,252.559a40.048,40.048,0,0,0-17.668,4.124,56.816,56.816,0,0,0,9.31-31.209A57.14,57.14,0,0,0,0,168.334V74.689a57.14,57.14,0,0,0,57.14-57.14c0-1.52-.111-3.014-.227-4.5a40.269,40.269,0,0,0,45.706,15.686A40.205,40.205,0,0,0,129.283,0a131.5,131.5,0,0,1,1.208,17.549A130.266,130.266,0,0,1,78.845,121.512a130.265,130.265,0,0,1,51.647,103.962,129.9,129.9,0,0,1-26.343,78.608A40.212,40.212,0,0,0,65.5,252.559Z" transform="translate(338.416 113.459)" fill="#d5c195"/>
    <circle id="Ellipse_5" data-name="Ellipse 5" cx="27.182" cy="27.182" r="27.182" transform="translate(408.976 70.61) rotate(13.283)" fill="#d5c195"/>
    <g id="Group_26" data-name="Group 26" transform="translate(0 0)">
      <path id="Path_23" data-name="Path 23" d="M27.681,0a40.347,40.347,0,0,0-1.267,9.874A40.413,40.413,0,0,0,66.828,50.288,40.185,40.185,0,0,0,84.951,45.96a57.027,57.027,0,0,0,45.54,91.453v8.738A156.759,156.759,0,0,0,44,177.981,130.38,130.38,0,0,1,27.681,0Z" transform="translate(0 50.182)" fill="#d5c195"/>
      <path id="Path_24" data-name="Path 24" d="M69.587,73.389a56.741,56.741,0,0,0-29.581,8.327,40.18,40.18,0,0,0,6.332-21.66A40.413,40.413,0,0,0,5.925,19.643,40.522,40.522,0,0,0,0,20.125,130.463,130.463,0,0,1,200.078,130.492c0,.172-.013.343-.013.516h-73.4c0-.174.026-.343.026-.516A57.1,57.1,0,0,0,69.587,73.389Z" transform="translate(60.904 0)" fill="#d5c195"/>
    </g>
    <circle id="Ellipse_6" data-name="Ellipse 6" cx="27.182" cy="27.182" r="27.182" transform="translate(383.452 373.84) rotate(13.282)" fill="#d5c195"/>
    <ellipse id="Ellipse_7" data-name="Ellipse 7" cx="27.182" cy="27.182" rx="27.182" ry="27.182" transform="translate(66.829 21.616) rotate(45)" fill="#d5c195"/>
    <path id="Path_25" data-name="Path 25" d="M51.314,26.177A129.791,129.791,0,0,1,129.668,0c.276,0,.547.021.823.023V72.731a57.14,57.14,0,1,0,57.14,57.14h93.645a57.054,57.054,0,0,0,86.985,48.658,40.177,40.177,0,0,0,45.8,57.634,130.412,130.412,0,0,1-179.61-27.449A130.476,130.476,0,1,1,51.314,26.177Z" transform="translate(0 209.062)" fill="#d5c195"/>
    <path id="Path_26" data-name="Path 26" d="M0,51.57c.02.026.043.052.063.078A130.4,130.4,0,0,1,134.395,3.592a40.207,40.207,0,0,0-19.37,70.842,57.074,57.074,0,0,0-68.139,56.057H0Z" transform="translate(234.39 0.517)" fill="#d5c195"/>
  </g>
</svg>
