<svg xmlns="http://www.w3.org/2000/svg" width="514.211" height="491.689" viewBox="0 0 514.211 491.689">
  <g id="hu-icon-on-hover" transform="matrix(-0.5, -0.866, 0.866, -0.5, 175.283, 512.607)" opacity="0.25">
    <circle id="Ellipse_4" data-name="Ellipse 4" cx="22.661" cy="22.661" r="22.661" transform="translate(290.135 14.075)" fill="#d5c195"/>
    <path id="Path_20" data-name="Path 20" d="M11.537,37.569A33.48,33.48,0,0,0,0,44.043,33.549,33.549,0,0,0,9.1,9.127,33.557,33.557,0,0,0,4.511,0a109.234,109.234,0,0,1,40.2,44.9A33.55,33.55,0,0,0,11.537,37.569Z" transform="translate(335.458 17.091)" fill="#d5c195"/>
    <path id="Path_21" data-name="Path 21" d="M0,7.9A33.407,33.407,0,0,0,13.9,6.473,33.464,33.464,0,0,0,25.434,0,33.631,33.631,0,0,0,14.728,24.094,47.857,47.857,0,0,0,0,7.9Z" transform="translate(309.064 62.035)" fill="#d5c195"/>
    <path id="Path_22" data-name="Path 22" d="M54.606,210.559A33.389,33.389,0,0,0,39.876,214a47.368,47.368,0,0,0,7.762-26.019A47.638,47.638,0,0,0,0,140.341V62.268A47.637,47.637,0,0,0,47.638,14.631c0-1.267-.092-2.512-.19-3.755A33.572,33.572,0,0,0,85.554,23.953,33.519,33.519,0,0,0,107.784,0a109.629,109.629,0,0,1,1.007,14.631A108.6,108.6,0,0,1,65.733,101.3a108.6,108.6,0,0,1,43.058,86.674,108.3,108.3,0,0,1-21.962,65.536,33.525,33.525,0,0,0-32.222-42.955Z" transform="translate(282.138 94.591)" fill="#d5c195"/>
    <circle id="Ellipse_5" data-name="Ellipse 5" cx="22.661" cy="22.661" r="22.661" transform="translate(340.965 58.868) rotate(13.283)" fill="#d5c195"/>
    <g id="Group_26" data-name="Group 26" transform="translate(0 0)">
      <path id="Path_23" data-name="Path 23" d="M23.077,0a33.637,33.637,0,0,0-1.056,8.232A33.693,33.693,0,0,0,55.715,41.925a33.5,33.5,0,0,0,15.109-3.608,47.544,47.544,0,0,0,37.966,76.244v7.285a130.691,130.691,0,0,0-72.109,26.537A108.7,108.7,0,0,1,23.077,0Z" transform="translate(0 41.837)" fill="#d5c195"/>
      <path id="Path_24" data-name="Path 24" d="M58.015,61.184a47.305,47.305,0,0,0-24.662,6.942,33.5,33.5,0,0,0,5.279-18.058A33.692,33.692,0,0,0,4.939,16.377a33.783,33.783,0,0,0-4.939.4,108.768,108.768,0,0,1,166.806,92.013c0,.144-.011.286-.011.43H105.6c0-.145.021-.286.021-.43A47.607,47.607,0,0,0,58.015,61.184Z" transform="translate(50.776 0)" fill="#d5c195"/>
    </g>
    <circle id="Ellipse_6" data-name="Ellipse 6" cx="22.661" cy="22.661" r="22.661" transform="translate(319.685 311.671) rotate(13.282)" fill="#d5c195"/>
    <ellipse id="Ellipse_7" data-name="Ellipse 7" cx="22.661" cy="22.661" rx="22.661" ry="22.661" transform="translate(55.715 18.021) rotate(45)" fill="#d5c195"/>
    <path id="Path_25" data-name="Path 25" d="M42.781,21.824A108.207,108.207,0,0,1,108.1,0c.23,0,.456.017.686.019V60.636a47.638,47.638,0,1,0,47.638,47.638H234.5A47.566,47.566,0,0,0,307.02,148.84a33.5,33.5,0,0,0,38.186,48.049,108.725,108.725,0,0,1-149.742-22.884A108.778,108.778,0,1,1,42.781,21.824Z" transform="translate(0 174.296)" fill="#d5c195"/>
    <path id="Path_26" data-name="Path 26" d="M0,42.994l.053.065A108.718,108.718,0,0,1,112.045,2.994,33.521,33.521,0,0,0,95.9,62.056a47.583,47.583,0,0,0-56.808,46.735H0Z" transform="translate(195.412 0.431)" fill="#d5c195"/>
  </g>
</svg>
